{
  "name": "rfranzen-puppet_agent",
  "version": "0.1.0",
  "author": "Ricardo Franzen",
  "summary": "Puppet module to manage puppet-agent",
  "license": "Apache-2.0",
  "source": "https://gitlab.com/rfranzen/puppet-puppet_agent",
  "project_page": "https://gitlab.com/rfranzen/puppet-puppet_agent",
  "issues_url": "https://gitlab.com/rfranzen/puppet-puppet_agent/issues",
  "tags": ["puppet6", "puppet5", "puppet", "puppet-agent", "puppetagent", "hiera5"],
  "dependencies": [
    {"name":"puppetlabs-apt","version_requirement":">=6.0.0 < 7.0.0"},
    {"name":"puppetlabs-augeas_core","version_requirement":">=1.0.0 < 2.0.0"}
  ],
  "operatingsystem_support": [
    {
      "operatingsystem": "Debian",
      "operatingsystemrelease": [
        "8"
      ]
    },
    {
      "operatingsystem": "Ubuntu",
      "operatingsystemrelease": [
        "16.04"
      ]
    }
  ],
  "requirements": [
    {
      "name": "puppet",
      "version_requirement": ">= 4.10.0 < 7.0.0"
    }
  ],
  "pdk-version": "1.10.0",
  "template-url": "file:///opt/puppetlabs/pdk/share/cache/pdk-templates.git#1.10.0",
  "template-ref": "1.10.0-0-gbba9ac3"
}
